<svg xmlns="http://www.w3.org/2000/svg" width="35.511" height="35.505" viewBox="0 0 35.511 35.505">
  <g id="Group_547" data-name="Group 547" transform="translate(-139 -1242.726)">
    <path id="Path_274" data-name="Path 274" d="M210.959,432h-2.367a.592.592,0,0,0-.592.592v3.551a.592.592,0,0,0,.592.592h2.367a.592.592,0,0,0,.592-.592v-3.551A.592.592,0,0,0,210.959,432Zm-.592,3.551h-1.184v-2.367h1.184Z" transform="translate(-54.794 841.497)" fill="#3f5ba5"/>
    <path id="Path_275" data-name="Path 275" d="M49.688,46.869q0-.038,0-.075a2.37,2.37,0,0,0-2.367-2.367,2.333,2.333,0,0,0-.836.155,2.367,2.367,0,0,0-2.123-1.338,2.34,2.34,0,0,0-1.184.323A2.34,2.34,0,0,0,42,43.244a2.367,2.367,0,0,0-2.123,1.338,2.33,2.33,0,0,0-.244-.078V36.127a5.029,5.029,0,1,0,5.357-8.4,4.686,4.686,0,0,0,.56-2.236A4.763,4.763,0,0,0,43.02,21.3a4.142,4.142,0,1,0-7.967,0,4.763,4.763,0,0,0-2.526,4.187,4.687,4.687,0,0,0,.56,2.236,5.027,5.027,0,0,0-1.153.738,5.009,5.009,0,0,0-1.151-.738,4.686,4.686,0,0,0,.56-2.236A4.763,4.763,0,0,0,28.818,21.3a4.142,4.142,0,1,0-7.967,0,4.763,4.763,0,0,0-2.526,4.187,4.686,4.686,0,0,0,.56,2.236,5.029,5.029,0,1,0,5.357,8.4v7.117h-6.51a.592.592,0,0,0-.592.592v4.142H16.55a.592.592,0,1,0,0,1.184h.592v1.775a.592.592,0,0,0,1.184,0V49.162h5.918v1.775a.592.592,0,0,0,1.184,0V49.162H26.61v1.775a.592.592,0,0,0,1.184,0V49.162h.592a.592.592,0,0,0,0-1.184h-.592V43.836a.592.592,0,0,0-.592-.592H25.426V36.127a5.017,5.017,0,0,0,6.508,0,5.02,5.02,0,0,0,6.511,0V44.5a2.371,2.371,0,0,0-1.775,2.292q0,.037,0,.075a2.367,2.367,0,0,0,.59,4.66H49.1a2.367,2.367,0,0,0,.59-4.66ZM18.325,47.978V46.794h5.918v1.184Zm7.1-1.184H26.61v1.184H25.426Zm1.184-1.184H18.325V44.427H26.61Zm2.071-9.468a3.86,3.86,0,0,1-3.255-1.8V28.695L27.62,26.5a.592.592,0,1,0-.837-.837l-1.357,1.357V24.9a.592.592,0,1,0-1.184,0v6.264l-1.357-1.357a.592.592,0,0,0-.837.837l2.194,2.194v1.507a3.846,3.846,0,1,1-4.3-5.75.592.592,0,0,0,.308-.932,3.515,3.515,0,0,1-.743-2.172A3.57,3.57,0,0,1,21.8,22.169a.592.592,0,0,0,.331-.8,2.959,2.959,0,1,1,5.4,0,.592.592,0,0,0,.331.8,3.57,3.57,0,0,1,2.295,3.321,3.515,3.515,0,0,1-.743,2.172.592.592,0,0,0,.308.932,3.847,3.847,0,0,1-1.044,7.548Zm6.51,0a3.86,3.86,0,0,1-2.449-.882,5.01,5.01,0,0,0,0-5.927,3.836,3.836,0,0,1,1.407-.739.592.592,0,0,0,.308-.932,3.515,3.515,0,0,1-.743-2.172,3.57,3.57,0,0,1,2.295-3.321.592.592,0,0,0,.331-.8,2.959,2.959,0,1,1,5.4,0,.592.592,0,0,0,.331.8,3.57,3.57,0,0,1,2.295,3.321,3.515,3.515,0,0,1-.743,2.172.592.592,0,0,0,.308.932,3.847,3.847,0,1,1-4.3,5.75V28.695L41.823,26.5a.592.592,0,1,0-.837-.837l-1.357,1.357V24.9a.592.592,0,1,0-1.184,0h0v6.264l-1.357-1.357a.592.592,0,0,0-.837.837l2.194,2.194v1.507a3.86,3.86,0,0,1-3.255,1.8ZM49.1,50.345H37.262a1.184,1.184,0,1,1-.018-2.367h0c.03,0,.061.008.091.01a.592.592,0,0,0,.593-.793,1.164,1.164,0,0,1-.077-.4,1.177,1.177,0,0,1,1.979-.868.592.592,0,0,0,.99-.4A1.183,1.183,0,0,1,42,44.427a1.166,1.166,0,0,1,.788.309.592.592,0,0,0,.792,0,1.166,1.166,0,0,1,.787-.309,1.183,1.183,0,0,1,1.173,1.1.592.592,0,0,0,.99.4,1.177,1.177,0,0,1,1.979.868,1.164,1.164,0,0,1-.077.4.592.592,0,0,0,.593.793c.031,0,.061-.006.091-.01h0a1.184,1.184,0,0,1-.018,2.367Z" transform="translate(123.045 1226.702)" fill="#3f5ba5"/>
    <ellipse id="Ellipse_12" data-name="Ellipse 12" cx="0.592" cy="0.592" rx="0.592" ry="0.592" transform="translate(165.633 1272.905)" fill="#3f5ba5"/>
    <ellipse id="Ellipse_13" data-name="Ellipse 13" cx="0.592" cy="0.592" rx="0.592" ry="0.592" transform="translate(169.184 1274.089)" fill="#3f5ba5"/>
    <ellipse id="Ellipse_14" data-name="Ellipse 14" cx="0.592" cy="0.592" rx="0.592" ry="0.592" transform="translate(162.083 1274.68)" fill="#3f5ba5"/>
  </g>
</svg>
